…
Several predefined queries that perform common processing tasks are also
included in the package:

``` r
lithologs <- query_lithologs(wells, reports, lithologies_df)
#> Warning: [extract] transforming vector data to the CRS of the raster
lithologs
#> # A tibble: 8,888 × 14
#>    gicwellid longitude latitude gr_elev bh_depth well_type location_type
#>        <int>     <dbl>    <dbl>   <dbl>    <dbl> <fct>     <fct>        
#>  1     40001     -113.     52.2    845.      149 Vertical  Well         
#>  2     40001     -113.     52.2    845.      149 Vertical  Well         
#>  3     40001     -113.     52.2    845.      149 Vertical  Well         
#>  4     40001     -113.     52.2    845.      149 Vertical  Well         
#>  5     40001     -113.     52.2    845.      149 Vertical  Well         
#>  6     40001     -113.     52.2    845.      149 Vertical  Well         
#>  7     40001     -113.     52.2    845.      149 Vertical  Well         
#>  8     40001     -113.     52.2    845.      149 Vertical  Well         
#>  9     40001     -113.     52.2    845.      149 Vertical  Well         
#> 10     40001     -113.     52.2    845.      149 Vertical  Well         
#> # ℹ 8,878 more rows
#> # ℹ 7 more variables: location_source <fct>, int_top_dep <dbl>,
#> #   int_bot_dep <dbl>, material <chr>, material_desc <chr>, colour <chr>,
#> #   waterbearing <lgl>
```
